Fetching and analyzing grunnkart for arealregnskap
…
Another example with a gpg file stored locally

solar_raw <- read_sf("../temp/solar_polygons.gpkg")
solar_raw

Simple feature collection with 49 features and 21 fields
Geometry type: MULTIPOLYGON
Dimension:     XY
Bounding box:  xmin: -38980.32 ymin: 6470501 xmax: 344548.4 ymax: 6841153
Projected CRS: ETRS89 / UTM zone 33N
# A tibble: 49 × 22
   OBJECTID objektType   anleggsNr saksID anleggNavn    eier  stadium saksKatego
      <dbl> <chr>            <dbl>  <dbl> <chr>         <chr> <chr>        <dbl>
 1    17511 Solkraftverk     14408  16129 Glamsland so… GREE… Søknad           1
 2    17526 Solkraftverk     14545  14040 Løvbergsmoen… NØK … Utredn…          1
 3    17528 Solkraftverk     13711  12966 Kile solkraf… GUDB… Konses…          2
 4    17529 Solkraftverk     14425  16111 Fossum solkr… FOSS… Høring           1
 5    17530 Solkraftverk     14425  16111 Fossum solkr… FOSS… Høring           1
 6    17531 Solkraftverk     14559   7618 Furuseth sol… SOLG… Konses…          2
 7    17532 Solkraftverk     14177  16119 Slåtta solkr… GREE… Søknad           1
 8    17533 Solkraftverk     13876  14039 Simonstad so… FRED… Utredn…          1
 9    17534 Solkraftverk     14161  16107 Lista solkra… FRED… Meldin…          4
10    17535 Solkraftverk     13876  14039 Simonstad so… FRED… Utredn…          1
# ℹ 39 more rows
# ℹ 14 more variables: lokaliseri <chr>, saksLenke <chr>, kommune <chr>,
#   fylkeNavn <chr>, status <chr>, datafangst <dbl>, malemetode <dbl>,
#   noyaktighe <dbl>, objektStat <dbl>, objektSt01 <dbl>, GlobalID <chr>,
#   Shape_Leng <dbl>, Shape_Area <dbl>, geom <MULTIPOLYGON [m]>
…
